Source_Version1/a.vcd
$date
	Mon Dec 16 13:21:32 2019
$end
$version
	Icarus Verilog
$end
$timescale
	1ps
$end
$scope module testbench $end
$var reg 1 ! clk $end
$var reg 1 " rst $end
$scope module top $end
$var wire 1 ! EXCLK $end
$var wire 1 # Rx $end
$var wire 1 " btnC $end
$var wire 1 $ clk $end
$var wire 32 % cpu_dbgreg_dout [31:0] $end
$var wire 8 & hci_io_din [7:0] $end
$var wire 1 ' hci_io_wr $end
$var wire 8 ( hci_ram_din [7:0] $end
$var wire 1 ) led $end
$var wire 1 * ram_en $end
$var wire 8 + ram_dout [7:0] $end
$var wire 17 , ram_a [16:0] $end
$var wire 1 - hci_ram_wr $end
$var wire 8 . hci_ram_dout [7:0] $end
$var wire 17 / hci_ram_a [16:0] $end
$var wire 3 0 hci_io_sel [2:0] $end
$var wire 1 1 hci_io_en $end
$var wire 8 2 hci_io_dout [7:0] $end
$var wire 1 3 hci_active_out $end
$var wire 1 4 hci_active $end
$var wire 1 5 cpumc_wr $end
$var wire 8 6 cpumc_din [7:0] $end
$var wire 32 7 cpumc_a [31:0] $end
$var wire 1 8 cpu_rdy $end
$var wire 1 9 cpu_ram_wr $end
$var wire 8 : cpu_ram_dout [7:0] $end
$var wire 8 ; cpu_ram_din [7:0] $end
$var wire 32 < cpu_ram_a [31:0] $end
$var wire 1 = Tx $end
$var reg 1 > rst $end
$var reg 1 ? rst_delay $end
$scope module cpu0 $end
$var wire 1 $ clk_in $end
$var wire 32 @ dbgreg_dout [31:0] $end
$var wire 1 A dbgrst $end
$var wire 8 B mem_din [7:0] $end
$var wire 1 8 rdy_in $end
$var wire 1 > rst_in $end
$var wire 1 C wb_wreg_i $end
$var wire 32 D wb_wdata_i [31:0] $end
$var wire 5 E wb_wd_i [4:0] $end
$var wire 6 F stall_state [5:0] $end
$var wire 1 G reg2_read $end
$var wire 32 H reg2_data [31:0] $end
$var wire 5 I reg2_addr [4:0] $end
$var wire 1 J reg1_read $end
$var wire 32 K reg1_data [31:0] $end
$var wire 5 L reg1_addr [4:0] $end
$var wire 1 M ram_w_req $end
$var wire 32 N ram_w_data [31:0] $end
$var wire 1 O ram_sync_1 $end
$var wire 1 P ram_sync_0 $end
$var wire 2 Q ram_state [1:0] $end
$var wire 1 R ram_r_req $end
$var wire 32 S ram_r_data [31:0] $end
$var wire 1 T ram_busy $end
$var wire 32 U ram_addr [31:0] $end
$var wire 32 V pc [31:0] $end
$var wire 1 W mem_wreg_o $end
$var wire 1 X mem_wreg_i $end
$var wire 1 9 mem_wr $end
$var wire 32 Y mem_wdata_o [31:0] $end
$var wire 32 Z mem_wdata_i [31:0] $end
$var wire 5 [ mem_wd_o [4:0] $end
$var wire 5 \ mem_wd_i [4:0] $end
$var wire 1 ] mem_stall $end
$var wire 32 ^ mem_mem_addr [31:0] $end
$var wire 8 _ mem_dout [7:0] $end
$var wire 32 ` mem_ctrl_inst [31:0] $end
$var wire 5 a mem_aluop_i [4:0] $end
$var wire 32 b mem_addr [31:0] $end
$var wire 32 c mem_a [31:0] $end
$var wire 1 d jmp_stall $end
$var wire 32 e inst_pc [31:0] $end
$var wire 1 f inst_ok $end
$var wire 1 g inquiry $end
$var wire 1 h if_stall $end
$var wire 32 i if_pc [31:0] $end
$var wire 32 j if_inst [31:0] $end
$var wire 1 k id_wreg_o $end
$var wire 5 l id_wd_o [4:0] $end
$var wire 1 m id_stall $end
$var wire 32 n id_reg2_o [31:0] $end
$var wire 32 o id_reg1_o [31:0] $end
$var wire 32 p id_pc_o [31:0] $end
$var wire 32 q id_pc_i [31:0] $end
$var wire 32 r id_offset [31:0] $end
$var wire 32 s id_inst_i [31:0] $end
$var wire 3 t id_alusel_o [2:0] $end
$var wire 5 u id_aluop_o [4:0] $end
$var wire 1 v ex_wreg_o $end
$var wire 1 w ex_wreg_i $end
$var wire 32 x ex_wdata_o [31:0] $end
$var wire 5 y ex_wd_o [4:0] $end
$var wire 5 z ex_wd_i [4:0] $end
$var wire 32 { ex_reg2_i [31:0] $end
$var wire 32 | ex_reg1_i [31:0] $end
$var wire 32 } ex_pc [31:0] $end
$var wire 32 ~ ex_offset [31:0] $end
$var wire 1 !" ex_ld_flag $end
$var wire 32 "" ex_b_target [31:0] $end
$var wire 1 #" ex_b_flag $end
$var wire 3 $" ex_alusel_i [2:0] $end
$var wire 5 %" ex_aluop_o [4:0] $end
$var wire 5 &" ex_aluop_i [4:0] $end
$scope module ex0 $end
$var wire 1 > rst $end
$var wire 1 w wreg_i $end
$var wire 5 '" wd_i [4:0] $end
$var wire 32 (" tmp [31:0] $end
$var wire 32 )" reg2_i [31:0] $end
$var wire 32 *" reg1_i [31:0] $end
$var wire 32 +" pc_i [31:0] $end
$var wire 32 ," offset_i [31:0] $end
$var wire 3 -" alusel_i [2:0] $end
$var wire 5 ." aluop_i [4:0] $end
$var reg 5 /" aluop_o [4:0] $end
$var reg 32 0" arithout [31:0] $end
$var reg 1 #" b_flag_o $end
$var reg 32 1" b_target_o [31:0] $end
$var reg 1 !" is_ld $end
$var reg 32 2" logicout [31:0] $end
$var reg 32 3" mem_addr_o [31:0] $end
$var reg 32 4" shiftout [31:0] $end
$var reg 5 5" wd_o [4:0] $end
$var reg 32 6" wdata_o [31:0] $end
$var reg 1 v wreg_o $end
$upscope $end
$scope module ex_mem0 $end
$var wire 1 $ clk $end
$var wire 5 7" ex_aluop [4:0] $end
$var wire 32 8" ex_mem_addr [31:0] $end
$var wire 5 9" ex_wd [4:0] $end
$var wire 32 :" ex_wdata [31:0] $end
$var wire 1 v ex_wreg $end
$var wire 1 > rst $end
$var wire 6 ;" stall_state [5:0] $end
$var reg 1 g inquiry_o $end
$var reg 5 <" mem_aluop [4:0] $end
$var reg 32 =" mem_mem_addr [31:0] $end
$var reg 5 >" mem_wd [4:0] $end
$var reg 32 ?" mem_wdata [31:0] $end
$var reg 1 X mem_wreg $end
$upscope $end
$scope module id0 $end
$var wire 1 #" ex_b_flag $end
$var wire 1 !" ex_ld_flag $end
$var wire 5 @" ex_wd_i [4:0] $end
$var wire 32 A" ex_wdata_i [31:0] $end
$var wire 1 v ex_wreg_i $end
$var wire 1 m id_stall $end
$var wire 1 d jmp_stall $end
$var wire 1 > rst $end
$var wire 5 B" rs2 [4:0] $end
$var wire 5 C" rs1 [4:0] $end
$var wire 32 D" reg2_data_i [31:0] $end
$var wire 32 E" reg1_data_i [31:0] $end
$var wire 5 F" rd [4:0] $end
$var wire 32 G" pc_i [31:0] $end
$var wire 7 H" opcode [6:0] $end
$var wire 1 W mem_wreg_i $end
$var wire 32 I" mem_wdata_i [31:0] $end
$var wire 5 J" mem_wd_i [4:0] $end
$var wire 32 K" inst_i [31:0] $end
$var wire 7 L" funct7 [6:0] $end
$var wire 3 M" funct3 [2:0] $end
$var wire 20 N" U_imm [19:0] $end
$var wire 20 O" UJ_imm [19:0] $end
$var wire 12 P" S_imm [11:0] $end
$var wire 12 Q" SB_imm [11:0] $end
$var wire 12 R" I_imm [11:0] $end
$var reg 5 S" aluop_o [4:0] $end
$var reg 3 T" alusel_o [2:0] $end
$var reg 32 U" imm [31:0] $end
$var reg 1 V" instvalid $end
$var reg 32 W" offset_o [31:0] $end
$var reg 32 X" pc_o [31:0] $end
$var reg 5 Y" reg1_addr_o [4:0] $end
$var reg 32 Z" reg1_o [31:0] $end
$var reg 1 J reg1_read_o $end
$var reg 1 [" reg1_stall $end
$var reg 5 \" reg2_addr_o [4:0] $end
$var reg 32 ]" reg2_o [31:0] $end
$var reg 1 G reg2_read_o $end
$var reg 1 ^" reg2_stall $end
$var reg 5 _" wd_o [4:0] $end
$var reg 1 k wreg_o $end
$upscope $end
$scope module id_ex0 $end
$var wire 1 $ clk $end
$var wire 1 #" ex_b_flag_i $end
$var wire 5 `" id_aluop [4:0] $end
$var wire 3 a" id_alusel [2:0] $end
$var wire 32 b" id_pc [31:0] $end
$var wire 32 c" id_reg1 [31:0] $end
$var wire 32 d" id_reg2 [31:0] $end
$var wire 5 e" id_wd [4:0] $end
$var wire 1 k id_wreg $end
$var wire 32 f" offset_i [31:0] $end
$var wire 1 > rst $end
$var wire 6 g" stall_state [5:0] $end
$var reg 5 h" ex_aluop [4:0] $end
$var reg 3 i" ex_alusel [2:0] $end
$var reg 32 j" ex_pc [31:0] $end
$var reg 32 k" ex_reg1 [31:0] $end
$var reg 32 l" ex_reg2 [31:0] $end
$var reg 5 m" ex_wd [4:0] $end
$var reg 1 w ex_wreg $end
$var reg 32 n" offset_o [31:0] $end
$upscope $end
$scope module if0 $end
$var wire 1 $ clk $end
$var wire 1 > rst $end
$var wire 32 o" pc [31:0] $end
$var wire 32 p" inst_pc [31:0] $end
$var wire 1 f inst_ok $end
$var wire 32 q" inst [31:0] $end
$var reg 1 h if_stall $end
$var reg 32 r" inst_o [31:0] $end
$var reg 32 s" pc_o [31:0] $end
$upscope $end
$scope module if_id0 $end
$var wire 1 $ clk $end
$var wire 1 #" ex_b_flag_i $end
$var wire 32 t" if_inst [31:0] $end
$var wire 32 u" if_pc [31:0] $end
$var wire 1 > rst $end
$var wire 6 v" stall_state [5:0] $end
$var reg 32 w" id_inst [31:0] $end
$var reg 32 x" id_pc [31:0] $end
$upscope $end
$scope module mem0 $end
$var wire 32 y" addr_i [31:0] $end
$var wire 5 z" aluop_i [4:0] $end
$var wire 1 $ clk $end
$var wire 1 g inquiry_i $end
$var wire 1 > rst $end
$var wire 5 {" wd_i [4:0] $end
$var wire 32 |" wdata_i [31:0] $end
$var wire 1 X wreg_i $end
$var wire 1 P ram_sync_i $end
$var wire 32 }" ram_r_data_i [31:0] $end
$var wire 1 T ram_busy_i $end
$var reg 1 ] mem_stall $end
$var reg 1 ~" processed $end
$var reg 32 !# ram_addr_o [31:0] $end
$var reg 1 R ram_r_req_o $end
$var reg 2 "# ram_state [1:0] $end
$var reg 1 O ram_sync_o $end
$var reg 32 ## ram_w_data_o [31:0] $end
$var reg 1 M ram_w_req_o $end
$var reg 5 $# wd_o [4:0] $end
$var reg 32 %# wdata_o [31:0] $end
$var reg 1 W wreg_o $end
$upscope $end
$scope module mem_Wb0 $end
$var wire 1 $ clk $end
$var wire 5 &# mem_wd [4:0] $end
$var wire 32 '# mem_wdata [31:0] $end
$var wire 1 W mem_wreg $end
$var wire 1 > rst $end
$var wire 6 (# stall_state [5:0] $end
$var reg 5 )# wb_wd [4:0] $end
$var reg 32 *# wb_wdata [31:0] $end
$var reg 1 C wb_wreg $end
$upscope $end
$scope module mem_ctrl0 $end
$var wire 1 +# cachehit $end
$var wire 1 $ clk $end
$var wire 8 ,# cpu_din [7:0] $end
$var wire 32 -# ram_addr_i [31:0] $end
$var wire 32 .# ram_data_i [31:0] $end
$var wire 1 R ram_r_req_i $end
$var wire 2 /# ram_state_i [1:0] $end
$var wire 1 O ram_sync_i $end
$var wire 1 M ram_w_req_i $end
$var wire 1 8 rdy_in $end
$var wire 1 > rst $end
$var wire 1 T ram_busy_o $end
$var wire 32 0# pc [31:0] $end
$var reg 8 1# cpu_dout [7:0] $end
$var reg 32 2# cpu_mem_a [31:0] $end
$var reg 1 9 cpu_mem_wr $end
$var reg 32 3# inst_o [31:0] $end
$var reg 1 f inst_ok $end
$var reg 32 4# inst_pc [31:0] $end
$var reg 32 5# ram_addr [31:0] $end
$var reg 32 6# ram_data [31:0] $end
$var reg 32 7# ram_data_o [31:0] $end
$var reg 1 P ram_sync_o $end
$var reg 1 8# res_rdy $end
$var reg 4 9# stage [3:0] $end
$var reg 2 :# type [1:0] $end
$var integer 32 ;# i [31:0] $end
$var integer 32 <# j [31:0] $end
$upscope $end
$scope module pc_reg0 $end
$var wire 1 $ clk $end
$var wire 1 #" ex_b_flag_i $end
$var wire 32 =# ex_b_target_i [31:0] $end
$var wire 1 > rst $end
$var wire 6 ># stall_state [5:0] $end
$var reg 32 ?# pc [31:0] $end
$upscope $end
$scope module regfile1 $end
$var wire 1 $ clk $end
$var wire 5 @# r1_addr [4:0] $end
$var wire 1 J r1_req $end
$var wire 5 A# r2_addr [4:0] $end
$var wire 1 G r2_req $end
$var wire 1 > rst $end
$var wire 5 B# w_addr [4:0] $end
$var wire 32 C# w_data [31:0] $end
$var wire 1 C w_req $end
$var reg 32 D# r1_data [31:0] $end
$var reg 32 E# r2_data [31:0] $end
$var integer 32 F# i [31:0] $end
$upscope $end
$scope module stall0 $end
$var wire 1 m id_stall $end
$var wire 1 h if_stall $end
$var wire 1 d jmp_stall $end
$var wire 1 ] mem_stall $end
$var wire 1 8 rdy $end
$var wire 1 > rst $end
$var reg 6 G# stall_state [5:0] $end
$upscope $end
$upscope $end
$scope module hci0 $end
$var wire 1 $ clk $end
$var wire 32 H# cpu_dbgreg_din [31:0] $end
$var wire 8 I# io_din [7:0] $end
$var wire 1 1 io_en $end
$var wire 3 J# io_sel [2:0] $end
$var wire 1 ' io_wr $end
$var wire 17 K# ram_a [16:0] $end
$var wire 8 L# ram_din [7:0] $end
$var wire 8 M# ram_dout [7:0] $end
$var wire 1 > rst $end
$var wire 1 # rx $end
$var wire 1 N# tx_full $end
$var wire 1 = tx $end
$var wire 1 O# rx_empty $end
$var wire 8 P# rd_data [7:0] $end
$var wire 1 Q# parity_err $end
$var wire 8 R# io_in_rd_data [7:0] $end
$var wire 1 S# io_in_full $end
$var wire 1 T# io_in_empty $end
$var wire 8 U# io_dout [7:0] $end
$var wire 32 V# d_cpu_cycle_cnt [31:0] $end
$var wire 1 3 active $end
$var reg 17 W# d_addr [16:0] $end
$var reg 3 X# d_decode_cnt [2:0] $end
$var reg 2 Y# d_err_code [1:0] $end
$var reg 17 Z# d_execute_cnt [16:0] $end
$var reg 8 [# d_io_dout [7:0] $end
$var reg 8 \# d_io_in_wr_data [7:0] $end
$var reg 1 ]# d_io_in_wr_en $end
$var reg 5 ^# d_state [4:0] $end
$var reg 8 _# d_tx_data [7:0] $end
$var reg 1 `# d_wr_en $end
$var reg 1 a# io_in_rd_en $end
$var reg 17 b# q_addr [16:0] $end
$var reg 32 c# q_cpu_cycle_cnt [31:0] $end
$var reg 3 d# q_decode_cnt [2:0] $end
$var reg 2 e# q_err_code [1:0] $end
$var reg 17 f# q_execute_cnt [16:0] $end
$var reg 8 g# q_io_dout [7:0] $end
$var reg 1 h# q_io_en $end
$var reg 8 i# q_io_in_wr_data [7:0] $end
$var reg 1 j# q_io_in_wr_en $end
$var reg 5 k# q_state [4:0] $end
$var reg 8 l# q_tx_data [7:0] $end
$var reg 1 m# q_wr_en $end
$var reg 1 - ram_wr $end
$var reg 1 n# rd_en $end
$scope module io_in_fifo $end
$var wire 10 o# addr_bits_wide_1 [9:0] $end
$var wire 1 $ clk $end
$var wire 1 p# d_empty $end
$var wire 1 q# d_full $end
$var wire 1 T# empty $end
$var wire 1 S# full $end
$var wire 8 r# rd_data [7:0] $end
$var wire 1 a# rd_en $end
$var wire 1 s# rd_en_prot $end
$var wire 1 > reset $end
$var wire 8 t# wr_data [7:0] $end
$var wire 1 j# wr_en $end
$var wire 1 u# wr_en_prot $end
$var wire 10 v# d_wr_ptr [9:0] $end
$var wire 10 w# d_rd_ptr [9:0] $end
$var wire 8 x# d_data [7:0] $end
$var reg 1 y# q_empty $end
$var reg 1 z# q_full $end
$var reg 10 {# q_rd_ptr [9:0] $end
$var reg 10 |# q_wr_ptr [9:0] $end
$upscope $end
$scope module uart_blk $end
$var wire 1 $ clk $end
$var wire 1 }# d_rx_parity_err $end
$var wire 1 Q# parity_err $end
$var wire 1 n# rd_en $end
$var wire 1 > reset $end
$var wire 1 # rx $end
$var wire 8 ~# tx_data [7:0] $end
$var wire 1 m# wr_en $end
$var wire 1 N# tx_full $end
$var wire 8 !$ tx_fifo_rd_data [7:0] $end
$var wire 1 "$ tx_fifo_empty $end
$var wire 1 #$ tx_done_tick $end
$var wire 1 = tx $end
$var wire 1 $$ rx_parity_err $end
$var wire 8 %$ rx_fifo_wr_data [7:0] $end
$var wire 1 O# rx_empty $end
$var wire 1 &$ rx_done_tick $end
$var wire 8 '$ rx_data [7:0] $end
$var wire 1 ($ baud_clk_tick $end
$var reg 1 )$ q_rx_parity_err $end
$scope module uart_baud_clk_blk $end
$var wire 1 $ clk $end
$var wire 1 > reset $end
$var wire 16 *$ d_cnt [15:0] $end
$var wire 1 ($ baud_clk_tick $end
$var reg 16 +$ q_cnt [15:0] $end
$upscope $end
$scope module uart_rx_blk $end
$var wire 1 ($ baud_clk_tick $end
$var wire 1 $ clk $end
$var wire 1 > reset $end
$var wire 1 # rx $end
$var wire 8 ,$ rx_data [7:0] $end
$var wire 1 &$ rx_done_tick $end
$var wire 1 $$ parity_err $end
$var reg 8 -$ d_data [7:0] $end
$var reg 3 .$ d_data_bit_idx [2:0] $end
$var reg 1 /$ d_done_tick $end
$var reg 4 0$ d_oversample_tick_cnt [3:0] $end
$var reg 1 1$ d_parity_err $end
$var reg 5 2$ d_state [4:0] $end
$var reg 8 3$ q_data [7:0] $end
$var reg 3 4$ q_data_bit_idx [2:0] $end
$var reg 1 &$ q_done_tick $end
$var reg 4 5$ q_oversample_tick_cnt [3:0] $end
$var reg 1 $$ q_parity_err $end
$var reg 1 6$ q_rx $end
$var reg 5 7$ q_state [4:0] $end
$upscope $end
$scope module uart_rx_fifo $end
$var wire 3 8$ addr_bits_wide_1 [2:0] $end
$var wire 1 $ clk $end
$var wire 1 9$ d_empty $end
$var wire 1 :$ d_full $end
$var wire 1 O# empty $end
$var wire 1 ;$ full $end
$var wire 8 <$ rd_data [7:0] $end
$var wire 1 n# rd_en $end
$var wire 1 =$ rd_en_prot $end
$var wire 1 > reset $end
$var wire 8 >$ wr_data [7:0] $end
$var wire 1 &$ wr_en $end
$var wire 1 ?$ wr_en_prot $end
$var wire 3 @$ d_wr_ptr [2:0] $end
$var wire 3 A$ d_rd_ptr [2:0] $end
$var wire 8 B$ d_data [7:0] $end
$var reg 1 C$ q_empty $end
$var reg 1 D$ q_full $end
$var reg 3 E$ q_rd_ptr [2:0] $end
$var reg 3 F$ q_wr_ptr [2:0] $end
$upscope $end
$scope module uart_tx_blk $end
$var wire 1 ($ baud_clk_tick $end
$var wire 1 $ clk $end
$var wire 1 > reset $end
$var wire 1 = tx $end
$var wire 1 #$ tx_done_tick $end
$var wire 1 G$ tx_start $end
$var wire 8 H$ tx_data [7:0] $end
$var reg 4 I$ d_baud_clk_tick_cnt [3:0] $end
$var reg 8 J$ d_data [7:0] $end
$var reg 3 K$ d_data_bit_idx [2:0] $end
$var reg 1 L$ d_parity_bit $end
$var reg 5 M$ d_state [4:0] $end
$var reg 1 N$ d_tx $end
$var reg 1 O$ d_tx_done_tick $end
$var reg 4 P$ q_baud_clk_tick_cnt [3:0] $end
$var reg 8 Q$ q_data [7:0] $end
$var reg 3 R$ q_data_bit_idx [2:0] $end
$var reg 1 S$ q_parity_bit $end
$var reg 5 T$ q_state [4:0] $end
$var reg 1 U$ q_tx $end
$var reg 1 #$ q_tx_done_tick $end
$upscope $end
$scope module uart_tx_fifo $end
$var wire 10 V$ addr_bits_wide_1 [9:0] $end
$var wire 1 $ clk $end
$var wire 1 W$ d_empty $end
$var wire 1 X$ d_full $end
$var wire 1 "$ empty $end
$var wire 1 N# full $end
$var wire 8 Y$ rd_data [7:0] $end
$var wire 1 #$ rd_en $end
$var wire 1 Z$ rd_en_prot $end
$var wire 1 > reset $end
$var wire 8 [$ wr_data [7:0] $end
$var wire 1 m# wr_en $end
$var wire 1 \$ wr_en_prot $end
$var wire 10 ]$ d_wr_ptr [9:0] $end
$var wire 10 ^$ d_rd_ptr [9:0] $end
$var wire 8 _$ d_data [7:0] $end
$var reg 1 `$ q_empty $end
$var reg 1 a$ q_full $end
$var reg 10 b$ q_rd_ptr [9:0] $end
$var reg 10 c$ q_wr_ptr [9:0] $end
$upscope $end
$upscope $end
$upscope $end
$scope module ram0 $end
$var wire 17 d$ a_in [16:0] $end
$var wire 1 $ clk_in $end
$var wire 8 e$ d_in [7:0] $end
$var wire 1 * en_in $end
$var wire 1 f$ r_nw_in $end
$var wire 1 g$ ram_bram_we $end
$var wire 8 h$ ram_bram_dout [7:0] $end
$var wire 8 i$ d_out [7:0] $end
$scope module ram_bram $end
$var wire 17 j$ addr_a [16:0] $end
$var wire 1 $ clk $end
$var wire 8 k$ din_a [7:0] $end
$var wire 8 l$ dout_a [7:0] $end
$var wire 1 g$ we $end
$var reg 17 m$ q_addr_a [16:0] $end
$var integer 32 n$ i [31:0] $end
$upscope $end
$upscope $end
$upscope $end
$upscope $end
$enddefinitions $end
#0
$dumpvars
b100000000000000000 n$
bx m$
bx l$
bx k$
bx j$
bx i$
bx h$
xg$
xf$
bx e$
bx d$
bx c$
bx b$
xa$
x`$
bx _$
bx ^$
bx ]$
x\$
bx [$
0Z$
bx Y$
xX$
xW$
b1 V$
1U$
b1 T$
0S$
b0 R$
b0 Q$
b0 P$
0O$
1N$
b1 M$
0L$
b0 K$
b0 J$
b0 I$
bx H$
xG$
bx F$
bx E$
xD$
xC$
bx B$
bx A$
bx @$
0?$
b0 >$
0=$
bx <$
x;$
x:$
x9$
b1 8$
b1 7$
16$
b0 5$
b0 4$
b0 3$
b1 2$
01$
b0 0$
0/$
b0 .$
b0 -$
b0 ,$
b0 +$
b1 *$
0)$
0($
bx '$
0&$
b0 %$
0$$
0#$
x"$
bx !$
bx ~#
0}#
bx |#
bx {#
xz#
xy#
bx x#
bx w#
bx v#
xu#
bx t#
0s#
bx r#
xq#
xp#
b1 o#
0n#
xm#
bx l#
bx k#
xj#
bx i#
xh#
bx g#
bx f#
bx e#
bx d#
bx c#
bx b#
0a#
0`#
b0 _#
bx ^#
0]#
b0 \#
b0 [#
bx Z#
bx Y#
bx X#
bx W#
bx V#
bx U#
xT#
xS#
bx R#
0Q#
bx P#
xO#
xN#
bx M#
bx L#
bx K#
bx J#
bx I#
bz H#
b0 G#
bx F#
b0 E#
b0 D#
bx C#
bx B#
bx A#
bx @#
bx ?#
b0 >#
b0 =#
b100000 <#
b100000 ;#
bx :#
bx 9#
x8#
b0 7#
bx 6#
bx 5#
b0 4#
b0 3#
bx 2#
bx 1#
bx 0#
b0 /#
b0 .#
b0 -#
bx ,#
x+#
bx *#
bx )#
b0 (#
b0 '#
b0 &#
b0 %#
b0 $#
b0 ##
b0 "#
b0 !#
0~"
b0 }"
bx |"
bx {"
bx z"
bx y"
bx x"
bx w"
b0 v"
b0 u"
b0 t"
b0 s"
b0 r"
b0 q"
b0 p"
bx o"
bx n"
bx m"
bx l"
bx k"
bx j"
bx i"
bx h"
b0 g"
b0 f"
bx e"
b0 d"
b0 c"
bx b"
b0 a"
b0 `"
bx _"
0^"
b0 ]"
bx \"
0["
b0 Z"
bx Y"
bx X"
b0 W"
0V"
b0 U"
b0 T"
b0 S"
bx R"
bx Q"
bx P"
bx O"
bx N"
bx M"
bx L"
bx K"
b0 J"
b0 I"
bx H"
bx G"
bx F"
b0 E"
b0 D"
bx C"
bx B"
b0 A"
b0 @"
bx ?"
bx >"
bx ="
bx <"
b0 ;"
b0 :"
b0 9"
b0 8"
b0 7"
b0 6"
b0 5"
b0 4"
b0 3"
b0 2"
b0 1"
b0 0"
b0 /"
bx ."
bx -"
bx ,"
bx +"
bx *"
bx )"
bx ("
bx '"
bx &"
b0 %"
bx $"
0#"
b0 ""
0!"
bx ~
bx }
bx |
bx {
bx z
b0 y
b0 x
xw
0v
b0 u
b0 t
bx s
b0 r
bx q
bx p
b0 o
b0 n
0m
bx l
0k
b0 j
b0 i
0h
xg
0f
b0 e
xd
bx c
b0 b
bx a
b0 `
bx _
bx ^
0]
bx \
b0 [
bx Z
b0 Y
xX
0W
bx V
b0 U
xT
b0 S
0R
b0 Q
0P
0O
b0 N
0M
bx L
b0 K
0J
bx I
b0 H
0G
b0 F
bx E
bx D
xC
bx B
1A
bz @
1?
1>
1=
bx <
bx ;
bx :
x9
18
bx 7
bx 6
x5
04
x3
bx 2
x1
bx 0
bx /
bx .
0-
bx ,
bx +
x*
0)
bx (
x'
bx &
bz %
0$
z#
1"
0!
$end
#1000
0d
0+#
1p#
0q#
0:$
19$
1W$
0X$
b100000 <#
b0 p
b0 X"
b0 b"
b0 I
b0 \"
b0 A#
b0 L
b0 Y"
b0 @#
b0 l
b0 _"
b0 e"
b0 O"
b0 N"
b0 Q"
b0 P"
b0 R"
b0 L"
b0 B"
b0 C"
b0 M"
b0 F"
b0 H"
b0 v#
b0 w#
b0 @$
b0 A$
0G$
b0 ]$
b0 ^$
0u#
0\$
b0 Y#
b0 W#
b0 Z#
b0 X#
b1 ^#
b0 V#
b0 V
b0 o"
b0 0#
b0 ?#
b0 q
b0 G"
b0 x"
b0 s
b0 K"
b0 w"
b0 ~
b0 ,"
b0 n"
b0 }
b0 +"
b0 j"
0w
b0 z
b0 '"
b0 m"
b0 ("
b0 {
b0 )"
b0 l"
b0 |
b0 *"
b0 k"
b0 $"
b0 -"
b0 i"
b0 &"
b0 ."
b0 h"
0g
b0 ^
b0 ="
b0 y"
b0 a
b0 <"
b0 z"
b0 Z
b0 ?"
b0 |"
0X
b0 \
b0 >"
b0 {"
b0 D
b0 *#
b0 C#
0C
b0 E
b0 )#
b0 B#
0S#
0z#
1T#
1y#
b0 |#
b0 {#
0;$
0D$
1O#
1C$
b0 F$
b0 E$
0N#
0a$
1"$
1`$
b0 c$
b0 b$
b0 2
b0 U#
b0 g#
b0 c#
0h#
b0 i#
b0 t#
0j#
0m#
b0 l#
b0 ~#
b0 [$
b0 e#
b0 /
b0 K#
b0 b#
b0 f#
b0 d#
13
b1 k#
b100000 F#
1$
1!
#2000
0g$
01
1*
1f$
b0 0
b0 J#
b0 ,
b0 d$
b0 j$
0'
05
b0 7
b100000 ;#
0T
b0 :#
08#
09
b0 <
b0 c
b0 2#
b0 6#
b0 5#
b0 9#
0$
0!
#3000
b110111 ;
b110111 B
b110111 ,#
b110111 (
b110111 L#
b110111 +
b110111 i$
b110111 h$
b110111 l$
b0 m$
b100000 F#
1$
1!
#4000
0$
0!
#5000
b100000 F#
1$
1!
#6000
0$
0!
#7000
b100000 F#
1$
1!
#8000
0$
0!
#9000
b100000 F#
1$
1!
#10000
0$
0!
#11000
b100000 F#
1$
1!
#12000
0$
0!
#13000
b100000 F#
1$
1!
#14000
0$
0!
#15000
b100000 F#
1$
1!
#16000
0$
0!
#17000
b100000 F#
1$
1!
#18000
0$
0!
#19000
b100000 F#
1$
1!
#20000
0$
0!
#21000
b100000 F#
1$
1!
#22000
0$
0!
#23000
b100000 F#
1$
1!
#24000
0$
0!
#25000
b100000 F#
1$
1!
#26000
0$
0!
#27000
b100000 F#
1$
1!
#28000
0$
0!
#29000
b100000 F#
1$
1!
#30000
0$
0!
#31000
b100000 F#
1$
1!
#32000
0$
0!
#33000
b100000 F#
1$
1!
#34000
0$
0!
#35000
b100000 F#
1$
1!
#36000
0$
0!
#37000
b100000 F#
1$
1!
#38000
0$
0!
#39000
b100000 F#
1$
1!
#40000
0$
0!
#41000
b100000 F#
1$
1!
#42000
0$
0!
#43000
b100000 F#
1$
1!
#44000
0$
0!
#45000
b100000 F#
1$
1!
#46000
0$
0!
#47000
b100000 F#
1$
1!
#48000
0$
0!
#49000
b100000 F#
1$
1!
#50000
0"
0$
0!
#51000
0?
b100000 F#
1$
1!
#52000
0$
0!
#53000
b11 F
b11 ;"
b11 g"
b11 v"
b11 (#
b11 >#
b11 G#
1h
0A
0>
b100000 F#
1$
1!
#54000
b11 0
b11 J#
b11 ,
b11 d$
b11 j$
b11 7
1T
b1 :#
b11 <
b11 c
b11 2#
b1011 9#
0$
0!
#55000
b0 ;
b0 B
b0 ,#
b0 (
b0 L#
b0 +
b0 i$
b10 *$
b0 h$
b0 l$
b11 m$
b1 +$
z6$
1$
1!
#56000
b10 0
b10 J#
b10 ,
b10 d$
b10 j$
b10 7
b1010 9#
b10 <
b10 c
b10 2#
0$
0!
#57000
b10 ;
b10 B
b10 ,#
b10 (
b10 L#
b10 +
b10 i$
b11 *$
b10 h$
b10 l$
b10 m$
b10 +$
1$
1!
#58000
b1 0
b1 J#
b1 ,
b1 d$
b1 j$
b1 7
b1001 9#
b1 <
b1 c
b1 2#
b100000000000000000 6#
0$
0!
#59000
b1 ;
b1 B
b1 ,#
b1 (
b1 L#
b1 +
b1 i$
b100 *$
b1 h$
b1 l$
b1 m$
b11 +$
1$
1!
#60000
b0 0
b0 J#
b0 ,
b0 d$
b0 j$
b0 7
b1000 9#
b0 <
b0 c
b0 2#
b100000000100000000 6#
0$
0!
#61000
b110111 ;
b110111 B
b110111 ,#
b110111 (
b110111 L#
b110111 +
b110111 i$
b101 *$
b110111 h$
b110111 l$
b0 m$
b100 +$
1$
1!
#62000
b0 F
b0 ;"
b0 g"
b0 v"
b0 (#
b0 >#
b0 G#
b100000000100110111 j
b100000000100110111 r"
b100000000100110111 t"
0h
1f
b100000000100110111 `
b100000000100110111 q"
b100000000100110111 3#
1+#
0T
18#
b0 9#
b100000000100110111 6#
0$
0!
